<?xml version="1.0" encoding="utf-8"?>
<!-- Generator: Adobe Illustrator 23.0.1, SVG Export Plug-In . SVG Version: 6.00 Build 0)  -->
<svg version="1.1" id="Layer_1" xmlns="http://www.w3.org/2000/svg" xmlns:xlink="http://www.w3.org/1999/xlink" x="0px" y="0px"
	 viewBox="0 0 824 362.8" style="enable-background:new 0 0 824 362.8;" xml:space="preserve">
<style type="text/css">
	.st0{fill:#048D45;}
	.st1{fill:#FFFFFF;}
</style>
<g>
	<path class="st0" d="M520.5,154.9c-14.9,0-27.8,5.4-38.4,15.9c-10.6,10.6-15.9,23.5-15.9,38.4c0,14.9,5.4,27.8,15.9,38.4
		c10.6,10.6,23.5,15.9,38.4,15.9c14.9,0,27.8-5.4,38.4-15.9c10.6-10.6,15.9-23.5,15.9-38.4c0-14.9-5.4-27.8-15.9-38.4
		C548.4,160.2,535.4,154.9,520.5,154.9z M538.6,227.3c-5,5-11.1,7.5-18.1,7.5c-7,0-13.1-2.5-18.1-7.5c-5-5-7.5-11.1-7.5-18.1
		c0-7,2.5-13.1,7.5-18.1c5-5,11.1-7.5,18.1-7.5c7,0,13.1,2.5,18.1,7.5c5,5,7.5,11.1,7.5,18.1C546.1,216.2,543.6,222.3,538.6,227.3z"
		/>
	<polygon class="st0" points="759.4,219.3 760,218.4 800.9,154.9 768.7,154.9 733.3,209.9 730.3,214.6 730.3,209 730.3,154.9 
		701.6,154.9 701.6,263.6 731,263.5 741.6,247.1 742.8,245.1 744.3,247 756.7,263.5 792.6,263.5 760.1,220.2 	"/>
	<path class="st0" d="M640.4,154.9c-14.9,0-27.8,5.4-38.4,15.9c-10.6,10.6-15.9,23.5-15.9,38.4c0,14.9,5.4,27.8,15.9,38.4
		c10.6,10.6,23.5,15.9,38.4,15.9c14.9,0,27.8-5.4,38.4-15.9c4.7-4.7,8.4-9.9,11-15.5l-26.5-11.4c-1.2,2.4-2.8,4.6-4.8,6.5
		c-5,5-11.1,7.5-18.1,7.5c-7,0-13.1-2.5-18.1-7.5c-5-5-7.5-11.1-7.5-18.1c0-7,2.5-13.1,7.5-18.1s11.1-7.5,18.1-7.5
		c7,0,13.1,2.5,18.1,7.5c2,2,3.6,4.2,4.8,6.5l26.5-11.4c-2.6-5.6-6.4-10.7-11-15.4C668.2,160.2,655.3,154.9,640.4,154.9z"/>
	<path class="st0" d="M374.7,228.9c0-22.9-12.5-34-38.3-34h-24c-7.9,0-9.6-3.2-9.6-5.9c0-3.5,3.2-5.3,9.6-5.3h46.3l-15.8-28.7h-30.6
		c-25.8,0-38.3,11.1-38.3,34c0,23.3,12.5,34.6,38.3,34.6h24c6.4,0,9.6,1.8,9.6,5.3c0,2.7-1.7,5.9-9.6,5.9h-77.8v28.7h77.8
		C362.1,263.5,374.7,252.2,374.7,228.9z"/>
	<polygon class="st0" points="460.2,154.9 460.2,183.6 428.3,183.6 428.3,263.5 399.6,263.5 399.6,183.6 372.2,183.6 356.4,154.9 	
		"/>
	<path class="st1" d="M774.8,218.8l36.7-57.1l12.5-19.4h-23.1h-32.2h-6.9l-3.7,5.8l-15.2,23.6v-16.8v-12.6h-12.6h-28.7H689v12.6v8.3
		c-0.4-0.5-0.9-0.9-1.3-1.4c-13-13-28.9-19.6-47.3-19.6c-18.4,0-34.3,6.6-47.3,19.6c-5.3,5.3-9.5,11-12.6,17.2
		c-3.2-6.2-7.3-11.9-12.6-17.2c-13-13-28.9-19.6-47.3-19.6c-18.4,0-34.3,6.6-47.3,19.6c-0.1,0.1-0.2,0.2-0.3,0.4v-7.4v-12.6h-12.6
		H356.4h-21.3l0,0h-22.8c-15.8,0-26.8,3.7-34.4,9.3V149c0-0.5,0-0.9,0-1.4c0-0.3,0-0.5,0-0.8v-0.2l-0.1-0.6
		c-0.1-0.7-0.2-1.5-0.3-2.2c-0.3-1.7-0.7-3.3-1.3-5c-2.4-6.6-6.9-12.1-12.9-15.7l-15.4-9.2l-47.1-27.9V58.8
		c0-32.4-27.8-58.8-61.9-58.8C122.5,0,107,6,95.4,16.9C83.5,28,77,42.7,76.9,58.4l-1,28.5l-61.3,36.3C5.6,128.6,0,138.5,0,149v119.3
		c0,7.8,3,15.2,8.5,20.9c0.5,0.5,1,1,1.5,1.5c1.5,1.3,3.1,2.5,4.7,3.5l109,64.6c0.6,0.3,1.2,0.7,1.7,0.9c1.2,0.6,2.4,1.1,3.7,1.6
		l0,0l0,0c1.3,0.5,2.6,0.8,3.9,1c1.9,0.4,3.9,0.6,5.8,0.6c2,0,3.9-0.2,5.8-0.6c1.3-0.2,2.6-0.6,3.9-1l0,0l0,0c1.3-0.5,2.6-1,3.7-1.6
		c0.6-0.3,1.1-0.6,1.7-0.9l93.6-55.5l15.4-9.2c6-3.5,10.6-9.1,12.9-15.6l0.8-2.3h59.3c39.3,0,48.9-23.3,50.6-40.9v28.3v12.6h12.6
		h28.7h12.6v-12.6v-67.3h13.9c-0.8,4.2-1.2,8.5-1.2,13c0,18.4,6.6,34.3,19.6,47.3c13,13,28.9,19.6,47.3,19.6
		c18.4,0,34.3-6.6,47.3-19.6c5.3-5.3,9.5-11,12.6-17.2c3.2,6.2,7.3,11.9,12.6,17.2c13,13,28.9,19.6,47.3,19.6
		c18.4,0,34.3-6.6,47.3-19.6c0.4-0.4,0.9-0.9,1.3-1.4v8.4v12.6l12.6,0l29.4-0.1l6.9,0l3.7-5.8l2-3.2l3,3.9l3.8,5h6.3h35.9h25.2
		l-15.2-20.2L774.8,218.8z"/>
	<g>
		<path class="st0" d="M520.5,154.9c-14.9,0-27.8,5.4-38.4,15.9c-10.6,10.6-15.9,23.5-15.9,38.4c0,14.9,5.4,27.8,15.9,38.4
			c10.6,10.6,23.5,15.9,38.4,15.9c14.9,0,27.8-5.4,38.4-15.9c10.6-10.6,15.9-23.5,15.9-38.4c0-14.9-5.4-27.8-15.9-38.4
			C548.4,160.2,535.4,154.9,520.5,154.9z M538.6,227.3c-5,5-11.1,7.5-18.1,7.5c-7,0-13.1-2.5-18.1-7.5c-5-5-7.5-11.1-7.5-18.1
			c0-7,2.5-13.1,7.5-18.1c5-5,11.1-7.5,18.1-7.5c7,0,13.1,2.5,18.1,7.5c5,5,7.5,11.1,7.5,18.1C546.1,216.2,543.6,222.3,538.6,227.3z
			"/>
		<polygon class="st0" points="759.4,219.3 760,218.4 800.9,154.9 768.7,154.9 733.3,209.9 730.3,214.6 730.3,209 730.3,154.9 
			701.6,154.9 701.6,263.6 731,263.5 741.6,247.1 742.8,245.1 744.3,247 756.7,263.5 792.6,263.5 760.1,220.2 		"/>
		<path class="st0" d="M640.4,154.9c-14.9,0-27.8,5.4-38.4,15.9c-10.6,10.6-15.9,23.5-15.9,38.4c0,14.9,5.4,27.8,15.9,38.4
			c10.6,10.6,23.5,15.9,38.4,15.9c14.9,0,27.8-5.4,38.4-15.9c4.7-4.7,8.4-9.9,11-15.5l-26.5-11.4c-1.2,2.4-2.8,4.6-4.8,6.5
			c-5,5-11.1,7.5-18.1,7.5c-7,0-13.1-2.5-18.1-7.5c-5-5-7.5-11.1-7.5-18.1c0-7,2.5-13.1,7.5-18.1s11.1-7.5,18.1-7.5
			c7,0,13.1,2.5,18.1,7.5c2,2,3.6,4.2,4.8,6.5l26.5-11.4c-2.6-5.6-6.4-10.7-11-15.4C668.2,160.2,655.3,154.9,640.4,154.9z"/>
		<path class="st0" d="M374.7,228.9c0-22.9-12.5-34-38.3-34h-24c-7.9,0-9.6-3.2-9.6-5.9c0-3.5,3.2-5.3,9.6-5.3h46.3l-15.8-28.7
			h-30.6c-25.8,0-38.3,11.1-38.3,34c0,23.3,12.5,34.6,38.3,34.6h24c6.4,0,9.6,1.8,9.6,5.3c0,2.7-1.7,5.9-9.6,5.9h-77.8v28.7h77.8
			C362.1,263.5,374.7,252.2,374.7,228.9z"/>
		<polygon class="st0" points="460.2,154.9 460.2,183.6 428.3,183.6 428.3,263.5 399.6,263.5 399.6,183.6 372.2,183.6 356.4,154.9 
					"/>
	</g>
	<g>
		<path class="st0" d="M520.5,154.9c-14.9,0-27.8,5.4-38.4,15.9c-10.6,10.6-15.9,23.5-15.9,38.4c0,14.9,5.4,27.8,15.9,38.4
			c10.6,10.6,23.5,15.9,38.4,15.9c14.9,0,27.8-5.4,38.4-15.9c10.6-10.6,15.9-23.5,15.9-38.4c0-14.9-5.4-27.8-15.9-38.4
			C548.4,160.2,535.4,154.9,520.5,154.9z M538.6,227.3c-5,5-11.1,7.5-18.1,7.5c-7,0-13.1-2.5-18.1-7.5c-5-5-7.5-11.1-7.5-18.1
			c0-7,2.5-13.1,7.5-18.1c5-5,11.1-7.5,18.1-7.5c7,0,13.1,2.5,18.1,7.5c5,5,7.5,11.1,7.5,18.1C546.1,216.2,543.6,222.3,538.6,227.3z
			"/>
		<polygon class="st0" points="759.4,219.3 760,218.4 800.9,154.9 768.7,154.9 733.3,209.9 730.3,214.6 730.3,209 730.3,154.9 
			701.6,154.9 701.6,263.6 731,263.5 741.6,247.1 742.8,245.1 744.3,247 756.7,263.5 792.6,263.5 760.1,220.2 		"/>
		<path class="st0" d="M640.4,154.9c-14.9,0-27.8,5.4-38.4,15.9c-10.6,10.6-15.9,23.5-15.9,38.4c0,14.9,5.4,27.8,15.9,38.4
			c10.6,10.6,23.5,15.9,38.4,15.9c14.9,0,27.8-5.4,38.4-15.9c4.7-4.7,8.4-9.9,11-15.5l-26.5-11.4c-1.2,2.4-2.8,4.6-4.8,6.5
			c-5,5-11.1,7.5-18.1,7.5c-7,0-13.1-2.5-18.1-7.5c-5-5-7.5-11.1-7.5-18.1c0-7,2.5-13.1,7.5-18.1s11.1-7.5,18.1-7.5
			c7,0,13.1,2.5,18.1,7.5c2,2,3.6,4.2,4.8,6.5l26.5-11.4c-2.6-5.6-6.4-10.7-11-15.4C668.2,160.2,655.3,154.9,640.4,154.9z"/>
		<path class="st0" d="M374.7,228.9c0-22.9-12.5-34-38.3-34h-24c-7.9,0-9.6-3.2-9.6-5.9c0-3.5,3.2-5.3,9.6-5.3h46.3l-15.8-28.7
			h-30.6c-25.8,0-38.3,11.1-38.3,34c0,23.3,12.5,34.6,38.3,34.6h24c6.4,0,9.6,1.8,9.6,5.3c0,2.7-1.7,5.9-9.6,5.9h-77.8v28.7h77.8
			C362.1,263.5,374.7,252.2,374.7,228.9z"/>
		<polygon class="st0" points="460.2,154.9 460.2,183.6 428.3,183.6 428.3,263.5 399.6,263.5 399.6,183.6 372.2,183.6 356.4,154.9 
					"/>
	</g>
	<g>
		<path class="st0" d="M90.9,114.9c2.6,0,4.7-2.1,4.7-4.7c0-1.3-0.6-2.5-1.4-3.4l1.7-48.1c0-22,19.3-39.9,43-39.9s43,17.9,43,39.9
			v48c-0.9,0.9-1.5,2.1-1.5,3.5c0,2.6,2.1,4.7,4.7,4.7c2.6,0,4.7-2.1,4.7-4.7c0-1.4-0.6-2.6-1.5-3.5v-48c0-25.5-22.1-46.2-49.3-46.2
			s-49.3,20.7-49.3,46l-1.7,48c-1,0.9-1.7,2.1-1.7,3.6C86.2,112.8,88.3,114.9,90.9,114.9z"/>
		<path class="st0" d="M265.3,148.1c0-0.2,0-0.3,0-0.5c0-0.1,0-0.2,0-0.2c0-0.5-0.1-0.9-0.2-1.4c-0.2-1-0.4-2-0.8-2.9
			c-1.3-3.7-4-7-7.5-9l-15.4-9.2l-50.1-29.7v7.2c2.3,1.8,3.8,4.6,3.8,7.8c0,5.5-4.5,10-10.1,10c-5.5,0-10-4.5-10-10
			c0-3.2,1.5-6,3.7-7.8V88.2v-0.5l-30.8-18.3c-0.3-0.2-0.7-0.4-1-0.6c-0.7-0.4-1.4-0.7-2.1-0.9c-0.7-0.3-1.5-0.5-2.2-0.6
			c-1.1-0.2-2.3-0.3-3.4-0.3c-1.2,0-2.3,0.1-3.4,0.3c-0.8,0.1-1.5,0.3-2.2,0.6c-0.7,0.3-1.5,0.6-2.1,0.9c-0.3,0.2-0.7,0.4-1,0.6
			L98,88.5l0,0.5l-0.5,13l0,0.6c2.1,1.8,3.5,4.5,3.5,7.6c0,5.5-4.5,10-10,10s-10-4.5-10-10c0-3.3,1.6-6.2,4-8l0-0.6l0.2-5.4
			l-64,37.9c-5.3,3.1-8.5,8.8-8.5,14.9v119.3c0,4.6,1.8,8.9,4.9,12.1c0.3,0.3,0.5,0.5,0.8,0.8c0.8,0.7,1.7,1.4,2.7,2l109,64.6
			c0.3,0.2,0.7,0.4,1,0.6c0.7,0.4,1.4,0.7,2.1,0.9c0.7,0.3,1.5,0.5,2.2,0.6c2.3,0.5,4.6,0.5,6.8,0c0.8-0.1,1.5-0.3,2.2-0.6
			c0.7-0.3,1.5-0.6,2.1-0.9c0.3-0.2,0.7-0.4,1-0.6l93.6-55.5l15.4-9.2c3.5-2.1,6.1-5.3,7.5-9l0,0c0.3-0.9,0.6-1.9,0.8-2.9
			c0.1-0.4,0.1-0.9,0.2-1.3c0-0.6,0.1-1.1,0.1-1.7V149C265.3,148.7,265.3,148.4,265.3,148.1z M229.9,263.5L139,316.1l-92.7-52.5
			V155.3l92.7-52.5l54.6,31.5l-34.9,20.5l-0.9,0.5L139,143.4l-56.5,32.7v65.1l56.5,32.8l19.8-11.6l35.4-20.7v-23.1L174.3,230
			l-25.6,14.7l-36.5-21.5l25.1-14.4l37-21.3l19.8-11.4l35.7-20.6V263.5z"/>
	</g>
</g>
</svg>
